{
    "result": {
      "resource_id": "d4d8a7f0-d4be-4397-b950-f0c991438111",
      "records": [
        {
          "subfuncao_codigo": "122",
          "programa_nome": "GESTÃO DAS POLÍTICAS MUNICIPAIS",
          "grupo_despesa_nome": "PESSOAL E ENCARGOS SOCIAIS",
          "subempenho": "83",
          "empenho_modalidade_nome": "SEM TIPO INFORMADO",
          "unidade_codigo": "10.01",
          "modalidade_licitacao_nome": "NÃO INFORMADA",
          "subelemento_nome": "VENCIMENTOS E SALÁRIOS",
          "empenho_modalidade_codigo": "0",
          "programa_codigo": "2160",
          "credor_codigo": "0",
          "empenho_numero": "43",
          "valor_liquidado": "160613,59",
          "modalidade_aplicacao_nome": "APLICAÇÕES DIRETAS",
          "valor_empenhado": "160613,59",
          "ano_movimentacao": "2017",
          "modalidade_aplicacao_codigo": "90",
          "categoria_economica_nome": "DESPESAS CORRENTES",
          "indicador_subempenho": "x",
          "unidade_nome": "GABINETE DO PREFEITO - ADMINISTRAÇÃO DIRETA",
          "acao_codigo": "2064",
          "fonte_recurso_nome": "RECURSOS ORDINÁRIOS - NÃO VINCULADOS",
          "orgao_nome": "GABINETE DO PREFEITO",
          "subelemento_codigo": "1",
          "elemento_codigo": "11",
          "funcao_codigo": "4",
          "subfuncao_nome": "ADMINISTRAÇÃO GERAL",
          "fonte_recurso_codigo": "100",
          "acao_nome": "ASSESSORAMENTO GOVERNAMENTAL",
          "elemento_nome": "VENCIMENTOS E VANTAGENS FIXAS - PESSOAL CIVIL",
          "mes_movimentacao": "3",
          "orgao_codigo": "10",
          "grupo_despesa_codigo": "1",
          "valor_pago": "160613,59",
          "funcao_nome": "ADMINISTRAÇÃO",
          "modalidade_licitacao_codigo": "0",
          "empenho_ano": "2017",
          "_id": 1,
          "categoria_economica_codigo": "3",
          "credor_nome": "CREDOR NÃO INFORMADO"
        },
        {
          "subfuncao_codigo": "122",
          "programa_nome": "GESTÃO DAS POLÍTICAS MUNICIPAIS",
          "grupo_despesa_nome": "PESSOAL E ENCARGOS SOCIAIS",
          "subempenho": "84",
          "empenho_modalidade_nome": "SEM TIPO INFORMADO",
          "unidade_codigo": "10.01",
          "modalidade_licitacao_nome": "NÃO INFORMADA",
          "subelemento_nome": "VENCIMENTOS E SALÁRIOS",
          "empenho_modalidade_codigo": "0",
          "programa_codigo": "2160",
          "credor_codigo": "0",
          "empenho_numero": "43",
          "valor_liquidado": "159933,78",
          "modalidade_aplicacao_nome": "APLICAÇÕES DIRETAS",
          "valor_empenhado": "159933,78",
          "ano_movimentacao": "2017",
          "modalidade_aplicacao_codigo": "90",
          "categoria_economica_nome": "DESPESAS CORRENTES",
          "indicador_subempenho": "x",
          "unidade_nome": "GABINETE DO PREFEITO - ADMINISTRAÇÃO DIRETA",
          "acao_codigo": "2064",
          "fonte_recurso_nome": "RECURSOS ORDINÁRIOS - NÃO VINCULADOS",
          "orgao_nome": "GABINETE DO PREFEITO",
          "subelemento_codigo": "1",
          "elemento_codigo": "11",
          "funcao_codigo": "4",
          "subfuncao_nome": "ADMINISTRAÇÃO GERAL",
          "fonte_recurso_codigo": "100",
          "acao_nome": "ASSESSORAMENTO GOVERNAMENTAL",
          "elemento_nome": "VENCIMENTOS E VANTAGENS FIXAS - PESSOAL CIVIL",
          "mes_movimentacao": "4",
          "orgao_codigo": "10",
          "grupo_despesa_codigo": "1",
          "valor_pago": "159933,78",
          "funcao_nome": "ADMINISTRAÇÃO",
          "modalidade_licitacao_codigo": "0",
          "empenho_ano": "2017",
          "_id": 2,
          "categoria_economica_codigo": "3",
          "credor_nome": "CREDOR NÃO INFORMADO"
        },
        {
          "subfuncao_codigo": "122",
          "programa_nome": "GESTÃO DAS POLÍTICAS MUNICIPAIS",
          "grupo_despesa_nome": "PESSOAL E ENCARGOS SOCIAIS",
          "subempenho": "87",
          "empenho_modalidade_nome": "SEM TIPO INFORMADO",
          "unidade_codigo": "10.01",
          "modalidade_licitacao_nome": "NÃO INFORMADA",
          "subelemento_nome": "VENCIMENTOS E SALÁRIOS",
          "empenho_modalidade_codigo": "0",
          "programa_codigo": "2160",
          "credor_codigo": "0",
          "empenho_numero": "43",
          "valor_liquidado": "77521,68",
          "modalidade_aplicacao_nome": "APLICAÇÕES DIRETAS",
          "valor_empenhado": "77521,68",
          "ano_movimentacao": "2017",
          "modalidade_aplicacao_codigo": "90",
          "categoria_economica_nome": "DESPESAS CORRENTES",
          "indicador_subempenho": "x",
          "unidade_nome": "GABINETE DO PREFEITO - ADMINISTRAÇÃO DIRETA",
          "acao_codigo": "2064",
          "fonte_recurso_nome": "RECURSOS ORDINÁRIOS - NÃO VINCULADOS",
          "orgao_nome": "GABINETE DO PREFEITO",
          "subelemento_codigo": "1",
          "elemento_codigo": "11",
          "funcao_codigo": "4",
          "subfuncao_nome": "ADMINISTRAÇÃO GERAL",
          "fonte_recurso_codigo": "100",
          "acao_nome": "ASSESSORAMENTO GOVERNAMENTAL",
          "elemento_nome": "VENCIMENTOS E VANTAGENS FIXAS - PESSOAL CIVIL",
          "mes_movimentacao": "7",
          "orgao_codigo": "10",
          "grupo_despesa_codigo": "1",
          "valor_pago": "77521,68",
          "funcao_nome": "ADMINISTRAÇÃO",
          "modalidade_licitacao_codigo": "0",
          "empenho_ano": "2017",
          "_id": 3,
          "categoria_economica_codigo": "3",
          "credor_nome": "CREDOR NÃO INFORMADO"
        },
        {
          "subfuncao_codigo": "122",
          "programa_nome": "GESTÃO DAS POLÍTICAS MUNICIPAIS",
          "grupo_despesa_nome": "PESSOAL E ENCARGOS SOCIAIS",
          "subempenho": "91",
          "empenho_modalidade_nome": "SEM TIPO INFORMADO",
          "unidade_codigo": "10.01",
          "modalidade_licitacao_nome": "NÃO INFORMADA",
          "subelemento_nome": "VENCIMENTOS E SALÁRIOS",
          "empenho_modalidade_codigo": "0",
          "programa_codigo": "2160",
          "credor_codigo": "0",
          "empenho_numero": "43",
          "valor_liquidado": "86559,28",
          "modalidade_aplicacao_nome": "APLICAÇÕES DIRETAS",
          "valor_empenhado": "86559,28",
          "ano_movimentacao": "2017",
          "modalidade_aplicacao_codigo": "90",
          "categoria_economica_nome": "DESPESAS CORRENTES",
          "indicador_subempenho": "x",
          "unidade_nome": "GABINETE DO PREFEITO - ADMINISTRAÇÃO DIRETA",
          "acao_codigo": "2064",
          "fonte_recurso_nome": "RECURSOS ORDINÁRIOS - NÃO VINCULADOS",
          "orgao_nome": "GABINETE DO PREFEITO",
          "subelemento_codigo": "1",
          "elemento_codigo": "11",
          "funcao_codigo": "4",
          "subfuncao_nome": "ADMINISTRAÇÃO GERAL",
          "fonte_recurso_codigo": "100",
          "acao_nome": "ASSESSORAMENTO GOVERNAMENTAL",
          "elemento_nome": "VENCIMENTOS E VANTAGENS FIXAS - PESSOAL CIVIL",
          "mes_movimentacao": "11",
          "orgao_codigo": "10",
          "grupo_despesa_codigo": "1",
          "valor_pago": "86559,28",
          "funcao_nome": "ADMINISTRAÇÃO",
          "modalidade_licitacao_codigo": "0",
          "empenho_ano": "2017",
          "_id": 4,
          "categoria_economica_codigo": "3",
          "credor_nome": "CREDOR NÃO INFORMADO"
        },
        {
          "subfuncao_codigo": "122",
          "programa_nome": "GESTÃO DAS POLÍTICAS MUNICIPAIS",
          "grupo_despesa_nome": "PESSOAL E ENCARGOS SOCIAIS",
          "subempenho": "86",
          "empenho_modalidade_nome": "SEM TIPO INFORMADO",
          "unidade_codigo": "10.01",
          "modalidade_licitacao_nome": "NÃO INFORMADA",
          "subelemento_nome": "INCORPORAÇÕES",
          "empenho_modalidade_codigo": "0",
          "programa_codigo": "2160",
          "credor_codigo": "0",
          "empenho_numero": "44",
          "valor_liquidado": "2855,30",
          "modalidade_aplicacao_nome": "APLICAÇÕES DIRETAS",
          "valor_empenhado": "2855,30",
          "ano_movimentacao": "2017",
          "modalidade_aplicacao_codigo": "90",
          "categoria_economica_nome": "DESPESAS CORRENTES",
          "indicador_subempenho": "x",
          "unidade_nome": "GABINETE DO PREFEITO - ADMINISTRAÇÃO DIRETA",
          "acao_codigo": "2064",
          "fonte_recurso_nome": "RECURSOS ORDINÁRIOS - NÃO VINCULADOS",
          "orgao_nome": "GABINETE DO PREFEITO",
          "subelemento_codigo": "5",
          "elemento_codigo": "11",
          "funcao_codigo": "4",
          "subfuncao_nome": "ADMINISTRAÇÃO GERAL",
          "fonte_recurso_codigo": "100",
          "acao_nome": "ASSESSORAMENTO GOVERNAMENTAL",
          "elemento_nome": "VENCIMENTOS E VANTAGENS FIXAS - PESSOAL CIVIL",
          "mes_movimentacao": "6",
          "orgao_codigo": "10",
          "grupo_despesa_codigo": "1",
          "valor_pago": "2855,30",
          "funcao_nome": "ADMINISTRAÇÃO",
          "modalidade_licitacao_codigo": "0",
          "empenho_ano": "2017",
          "_id": 5,
          "categoria_economica_codigo": "3",
          "credor_nome": "CREDOR NÃO INFORMADO"
        }
      ],
      "_links": {
        "start": "/api/action/datastore_search?limit=5&resource_id=d4d8a7f0-d4be-4397-b950-f0c991438111",
        "next": "/api/action/datastore_search?offset=5&limit=5&resource_id=d4d8a7f0-d4be-4397-b950-f0c991438111"
      },
      "limit": 5,
      "total": 94178
    }
  }